{
  "openapi": "3.0.2",
  "info": {
      "title": "Car Management API - Kelompok 2",
      "version": "1.0.0"
  },
  "servers": [
      {
          "url": "http://localhost:8000",
          "description": "localhost"
      }
  ],
  "components": {
      "securitySchemes": {
          "bearerAuth": {
              "type": "http",
              "scheme": "bearer"
          }
      }
  },
  "tags": [
      {
          "name": "Authentication"
      },
      {
          "name": "Car"
      }
  ],
  "paths": {
      "/api/auth/login": {
          "post": {
              "tags": [
                  "Authentication"
              ],
              "summary": "Login",
              "requestBody": {
                  "content": {
                      "application/json": {
                          "schema": {
                              "type": "object",
                              "example": {
                                  "email": "superadmin@gmail.com",
                                  "password": "admin123"
                              }
                          }
                      }
                  }
              },
              "responses": {
                  "200": {
                      "description": "Successful response",
                      "content": {
                          "application/json": {}
                      }
                  }
              }
          }
      },
      "/api/auth/register": {
          "post": {
              "tags": [
                  "Authentication"
              ],
              "summary": "Register Admin",
              "requestBody": {
                  "content": {
                      "application/json": {
                          "schema": {
                              "type": "object",
                              "example": {
                                  "email": "admin@binar.com",
                                  "password": "password"
                              }
                          }
                      }
                  }
              },
              "security": [
                  {
                      "bearerAuth": []
                  }
              ],
              "responses": {
                  "200": {
                      "description": "Successful response",
                      "content": {
                          "application/json": {}
                      }
                  }
              }
          }
      },
      "/api/user/add": {
          "post": {
              "tags": [
                  "Authentication"
              ],
              "summary": "Register Member",
              "requestBody": {
                  "content": {
                      "application/json": {
                          "schema": {
                              "type": "object",
                              "example": {
                                  "name": "user",
                                  "email": "user@binar.com",
                                  "password": "password"
                              }
                          }
                      }
                  }
              },
              "responses": {
                  "200": {
                      "description": "Successful response",
                      "content": {
                          "application/json": {}
                      }
                  }
              }
          }
      },
      "/api/auth/whoami": {
          "get": {
              "tags": [
                  "Authentication"
              ],
              "summary": "Current User",
              "security": [
                  {
                      "bearerAuth": []
                  }
              ],
              "responses": {
                  "200": {
                      "description": "Successful response",
                      "content": {
                          "application/json": {}
                      }
                  }
              }
          }
      },
      "/api/car": {
          "post": {
              "tags": [
                  "Car"
              ],
              "summary": "Create data",
              "requestBody": {
                  "content": {
                      "application/json": {
                          "schema": {
                              "type": "object",
                              "example": {
                                  "sizeId": 1,
                                  "name": "Avanza",
                                  "price": "500000"
                              }
                          }
                      }
                  }
              },
              "security": [
                  {
                      "bearerAuth": []
                  }
              ],
              "responses": {
                  "200": {
                      "description": "Successful response",
                      "content": {
                          "application/json": {}
                      }
                  }
              }
          },
          "get": {
              "tags": [
                  "Car"
              ],
              "summary": "Get all data car",
              "security": [
                  {
                      "bearerAuth": []
                  }
              ],
              "responses": {
                  "200": {
                      "description": "Successful response",
                      "content": {
                          "application/json": {}
                      }
                  }
              }
          }
      },
      "/api/car/2": {
          "get": {
              "tags": [
                  "Car"
              ],
              "summary": "Get by id",
              "security": [
                  {
                      "bearerAuth": []
                  }
              ],
              "responses": {
                  "200": {
                      "description": "Successful response",
                      "content": {
                          "application/json": {}
                      }
                  }
              }
          },
          "put": {
              "tags": [
                  "Car"
              ],
              "summary": "update data",
              "requestBody": {
                  "content": {
                      "application/json": {
                          "schema": {
                              "type": "object",
                              "example": {
                                  "sizeId": 1,
                                  "name": "Avanza alskdjaksjd",
                                  "price": "400.000"
                              }
                          }
                      }
                  }
              },
              "security": [
                  {
                      "bearerAuth": []
                  }
              ],
              "responses": {
                  "200": {
                      "description": "Successful response",
                      "content": {
                          "application/json": {}
                      }
                  }
              }
          },
          "delete": {
              "tags": [
                  "Car"
              ],
              "summary": "Delete data",
              "security": [
                  {
                      "bearerAuth": []
                  }
              ],
              "responses": {
                  "200": {
                      "description": "Successful response",
                      "content": {
                          "application/json": {}
                      }
                  }
              }
          }
      }
  }
}